{
    "_id": "bkZgWFSFV4cAf5Ot",
    "data": {
        "actionCategory": {
            "value": ""
        },
        "actionType": {
            "value": "passive"
        },
        "actions": {
            "value": ""
        },
        "description": {
            "chat": "",
            "unidentified": "",
            "value": "<p>Your surgery can bring a patient back from the brink of death, but might push them over the edge. When you @Compendium[pf2e.actionspf2e.Treat Wounds]{Treat Wounds}, you can deal [[/r 1d8 #slashing]] slashing damage to your patient just before applying the effects of Treat Wounds.</p>\n<p>If you do, you gain a +2 circumstance bonus to your Medicine check to Treat Wounds, and if you roll a success, you get a critical success instead.</p>"
        },
        "featType": {
            "value": "skill"
        },
        "level": {
            "value": "1"
        },
        "prerequisites": {
            "value": [
                "trained in Medicine"
            ]
        },
        "rarity": {
            "value": "common"
        },
        "rules": [],
        "source": {
            "value": ""
        },
        "traits": {
            "rarity": {
                "value": "common"
            },
            "value": [
                "general",
                "skill"
            ]
        }
    },
    "flags": {},
    "img": "systems/pf2e/icons/features/feats/feats.jpg",
    "name": "Risky Surgery",
    "permission": {
        "default": 0
    },
    "type": "feat"
}
