{
    "_id": "1Eceqc6zbMj2x0q9",
    "data": {
        "actionCategory": {
            "value": ""
        },
        "actionType": {
            "value": "passive"
        },
        "actions": {
            "value": ""
        },
        "description": {
            "chat": "",
            "unidentified": "",
            "value": "<p>You've mastered the preparation of many types of food and drink. You gain a +1 circumstance bonus to checks to Craft food and drink, including potions. If you are a master in one of the prerequisite skills, this bonus increases to +2.</p>"
        },
        "featType": {
            "value": "skill"
        },
        "level": {
            "value": "1"
        },
        "prerequisites": {
            "value": [
                "trained in Alcohol Lore, Cooking Lore, or Crafting"
            ]
        },
        "rarity": {
            "value": "common"
        },
        "rules": [],
        "source": {
            "value": ""
        },
        "traits": {
            "rarity": {
                "value": "common"
            },
            "value": [
                "general",
                "skill"
            ]
        }
    },
    "flags": {},
    "img": "systems/pf2e/icons/features/feats/feats.jpg",
    "name": "Seasoned",
    "permission": {
        "default": 0
    },
    "type": "feat"
}
