{
    "_id": "NYQ5ZKeCYky0wZyS",
    "data": {
        "actionCategory": {
            "value": ""
        },
        "actionType": {
            "value": "passive"
        },
        "actions": {
            "value": ""
        },
        "description": {
            "chat": "",
            "unidentified": "",
            "value": "<p>The intricacy of your divine power has grown clearer over time. Your proficiency ranks for divine spell attack rolls and spell DCs increase to expert.</p>"
        },
        "featType": {
            "value": "classfeature"
        },
        "level": {
            "value": "7"
        },
        "prerequisites": {
            "value": ""
        },
        "rarity": {
            "value": "common"
        },
        "source": {
            "value": ""
        },
        "traits": {
            "custom": "",
            "rarity": {
                "value": "common"
            },
            "value": [
                "oracle"
            ]
        }
    },
    "flags": {},
    "img": "systems/pf2e/icons/features/classes/expert-spellcaster.jpg",
    "name": "Expert Spellcaster (Oracle)",
    "permission": {
        "default": 0
    },
    "type": "feat"
}
