{
    "_id": "Cq6NjvcKZOMySBVj",
    "data": {
        "actionCategory": {
            "value": ""
        },
        "actionType": {
            "value": "passive"
        },
        "actions": {
            "value": ""
        },
        "description": {
            "chat": "",
            "unidentified": "",
            "value": "<p>You move like the wind. You gain a +10-foot status bonus to your Speed whenever you're not wearing armor. The bonus increases by 5 feet for every 4 levels you have beyond 3rd.</p>"
        },
        "featType": {
            "value": "classfeature"
        },
        "level": {
            "value": "3"
        },
        "prerequisites": {
            "value": ""
        },
        "rarity": {
            "value": "common"
        },
        "rules": [
            {
                "key": "PF2E.RuleElement.FlatModifier",
                "selector": "land-speed",
                "label": "Incredible Movement",
                "value": {
                  "brackets": [
                    {
                      "start": 3,
                      "end": 6,
                      "value": 10
                    },
                    {
                      "start": 7,
                      "end": 10,
                      "value": 15
                    },
                    {
                      "start": 11,
                      "end": 14,
                      "value": 20
                    },
                    {
                      "start": 15,
                      "end": 18,
                      "value": 25
                    },
                    {
                      "start": 19,
                      "value": 30
                    }
                  ]
                },
                "type": "status"
            }
        ],
        "source": {
            "value": ""
        },
        "traits": {
            "custom": "",
            "value": [
                "monk"
            ]
        }
    },
    "flags": {},
    "img": "systems/pf2e/icons/features/classes/incredible-movement.jpg",
    "name": "Incredible Movement",
    "permission": {
        "default": 0
    },
    "type": "feat"
}
