{
    "_id": "EgJFG9DNs9jNuDL9",
    "data": {
        "actionCategory": {
            "value": ""
        },
        "actionType": {
            "value": "passive"
        },
        "actions": {
            "value": ""
        },
        "description": {
            "chat": "",
            "unidentified": "",
            "value": "<p>You demonstrate prodigious talent for spellcasting. Your proficiency ranks for spell attack rolls and spell DCs for spells of your bloodline's tradition increase to legendary.</p>"
        },
        "featType": {
            "value": "classfeature"
        },
        "level": {
            "value": "19"
        },
        "prerequisites": {
            "value": ""
        },
        "rarity": {
            "value": "common"
        },
        "source": {
            "value": ""
        },
        "traits": {
            "custom": "",
            "value": [
                "sorcerer"
            ]
        }
    },
    "flags": {},
    "img": "systems/pf2e/icons/features/classes/legendary-spellcaster.jpg",
    "name": "Legendary Spellcaster (Sorcerer)",
    "permission": {
        "default": 0
    },
    "type": "feat"
}
