{
    "_id": "BbIyNJDPkGKLK0Rt",
    "data": {
        "abilities": {
            "cha": {
                "min": 3,
                "mod": 0,
                "value": 10
            },
            "con": {
                "min": 3,
                "mod": 2,
                "value": 14
            },
            "dex": {
                "min": 3,
                "mod": 4,
                "value": 18
            },
            "int": {
                "min": 3,
                "mod": 1,
                "value": 12
            },
            "str": {
                "min": 3,
                "mod": "+1",
                "value": 12
            },
            "wis": {
                "min": 3,
                "mod": 1,
                "value": 12
            }
        },
        "attributes": {
            "ac": {
                "check": 0,
                "details": "",
                "dex": 0,
                "item": 0,
                "min": 0,
                "value": "16"
            },
            "allSaves": {
                "value": ""
            },
            "ancestryhp": 0,
            "bonusEncumbranceBulk": 0,
            "bonusLimitBulk": 0,
            "classDC": {
                "ability": "str",
                "breakdown": "",
                "item": 0,
                "rank": 0,
                "value": 0
            },
            "classhp": 0,
            "flatbonushp": 0,
            "flatbonussp": 0,
            "hp": {
                "details": "",
                "max": "24",
                "min": 0,
                "temp": 0,
                "tempmax": 0,
                "value": "24"
            },
            "init": {
                "bonus": 0,
                "value": 0
            },
            "initiative": {
                "ability": "",
                "circumstance": 0,
                "status": 0
            },
            "levelbonushp": 0,
            "levelbonussp": 0,
            "perception": {
                "ability": "wis",
                "breakdown": "",
                "item": 0,
                "rank": 0,
                "value": 6
            },
            "resolve": {
                "value": 0
            },
            "shield": {
                "ac": 0,
                "brokenThreshold": 0,
                "hardness": 0,
                "max": 0,
                "min": 0,
                "value": 0
            },
            "sp": {
                "details": "",
                "max": 0,
                "min": 0,
                "value": 0
            },
            "speed": {
                "otherSpeeds": [
                    {
                        "type": "Climb",
                        "value": "20 feet"
                    }
                ],
                "special": "",
                "value": "20 feet"
            }
        },
        "currency": {
            "cp": {
                "value": 0
            },
            "gp": {
                "value": 0
            },
            "pp": {
                "value": 0
            },
            "sp": {
                "value": 0
            }
        },
        "details": {
            "alignment": {
                "value": "LE"
            },
            "ancestry": {
                "value": "Gremlin"
            },
            "biography": {
                "public": "",
                "value": ""
            },
            "class": {
                "value": ""
            },
            "creatureType": "Fey",
            "deity": {
                "image": "systems/pf2e/assets/sheet/deity.png",
                "value": ""
            },
            "flavorText": "These gremlins are covered head-to-toe by a crustacean-like exoskeleton that clacks and rattles whenever a vexgit moves. They delight in sabotaging the works of other creatures, often turning these works into dangerous traps. An individual vexgit might jam a door lock, loosen the wheels on a carriage, or remove nails from a boat hull. Buildings infested by vexgits become filled with traps like portcullises descending suddenly, water pipes exploding violently, and clock towers disgorging an avalanches of gears.<br /> Aware of their own physical weakness, vexgits carry hammers and other tools to leverage pieces apart or smash whatever they're unable to disassemble. Indeed, a hammer sized for a human becomes a maul in the tiny hands of a vexgit.<br /> Vexgit infestations range from one to a score. Larger groups are often led by a more powerful vexgit with additional skill in thievery or primal magic. Trained giant rats, vipers, and rat swarms are common in vexgit lairs.<br /><br />",
            "flavourText": "",
            "heritage": {
                "value": ""
            },
            "keyability": {
                "value": "str"
            },
            "level": {
                "min": 1,
                "value": "1"
            },
            "nethysUrl": "https://2e.aonprd.com/Monsters.aspx?ID=688",
            "recallKnowledgeText": "Recall Knowledge - Fey : DC 15",
            "sidebarText": "",
            "source": {
                "value": "Bestiary 2 pg. 134"
            }
        },
        "martial": {
            "advanced": {
                "breakdown": "",
                "rank": 0,
                "value": 0
            },
            "heavy": {
                "breakdown": "",
                "rank": 0,
                "value": 0
            },
            "light": {
                "breakdown": "",
                "rank": 0,
                "value": 0
            },
            "martial": {
                "breakdown": "",
                "rank": 0,
                "value": 0
            },
            "medium": {
                "breakdown": "",
                "rank": 0,
                "value": 0
            },
            "simple": {
                "breakdown": "",
                "rank": 0,
                "value": 0
            },
            "unarmed": {
                "breakdown": "",
                "rank": 0,
                "value": 0
            },
            "unarmored": {
                "breakdown": "",
                "rank": 0,
                "value": 0
            }
        },
        "saves": {
            "fortitude": {
                "ability": "con",
                "breakdown": "",
                "item": 0,
                "rank": 0,
                "saveDetail": "",
                "value": 5
            },
            "reflex": {
                "ability": "dex",
                "breakdown": "",
                "item": 0,
                "rank": 0,
                "saveDetail": "",
                "value": 9
            },
            "will": {
                "ability": "wis",
                "breakdown": "",
                "item": 0,
                "rank": 0,
                "saveDetail": "",
                "value": 6
            }
        },
        "schema": {
            "version": {
                "value": ""
            }
        },
        "skills": {
            "acr": {
                "ability": "dex",
                "armor": 1,
                "breakdown": "",
                "item": 0,
                "mod": 0,
                "rank": 0,
                "value": 0
            },
            "arc": {
                "ability": "int",
                "breakdown": "",
                "item": 0,
                "mod": 0,
                "rank": 0,
                "value": 0
            },
            "ath": {
                "ability": "str",
                "armor": 1,
                "breakdown": "",
                "item": 0,
                "mod": 0,
                "rank": 0,
                "value": 0
            },
            "cra": {
                "ability": "int",
                "breakdown": "",
                "item": 0,
                "mod": 0,
                "rank": 0,
                "value": 0
            },
            "dec": {
                "ability": "cha",
                "breakdown": "",
                "item": 0,
                "mod": 0,
                "rank": 0,
                "value": 0
            },
            "dip": {
                "ability": "cha",
                "breakdown": "",
                "item": 0,
                "mod": 0,
                "rank": 0,
                "value": 0
            },
            "itm": {
                "ability": "cha",
                "breakdown": "",
                "item": 0,
                "mod": 0,
                "rank": 0,
                "value": 0
            },
            "med": {
                "ability": "wis",
                "breakdown": "",
                "item": 0,
                "mod": 0,
                "rank": 0,
                "value": 0
            },
            "nat": {
                "ability": "wis",
                "breakdown": "",
                "item": 0,
                "mod": 0,
                "rank": 0,
                "value": 0
            },
            "occ": {
                "ability": "int",
                "breakdown": "",
                "item": 0,
                "mod": 0,
                "rank": 0,
                "value": 0
            },
            "prf": {
                "ability": "cha",
                "breakdown": "",
                "item": 0,
                "mod": 0,
                "rank": 0,
                "value": 0
            },
            "rel": {
                "ability": "wis",
                "breakdown": "",
                "item": 0,
                "mod": 0,
                "rank": 0,
                "value": 0
            },
            "soc": {
                "ability": "int",
                "breakdown": "",
                "item": 0,
                "mod": 0,
                "rank": 0,
                "value": 0
            },
            "ste": {
                "ability": "dex",
                "armor": 1,
                "breakdown": "",
                "item": 0,
                "mod": 0,
                "rank": 0,
                "value": 0
            },
            "sur": {
                "ability": "wis",
                "breakdown": "",
                "item": 0,
                "mod": 0,
                "rank": 0,
                "value": 0
            },
            "thi": {
                "ability": "dex",
                "armor": 1,
                "breakdown": "",
                "item": 0,
                "mod": 0,
                "rank": 0,
                "value": 0
            }
        },
        "spells": {
            "spell0": {
                "max": 0
            },
            "spell1": {
                "max": 0
            },
            "spell10": {
                "max": 0
            },
            "spell11": {
                "max": 0
            },
            "spell2": {
                "max": 0
            },
            "spell3": {
                "max": 0
            },
            "spell4": {
                "max": 0
            },
            "spell5": {
                "max": 0
            },
            "spell6": {
                "max": 0
            },
            "spell7": {
                "max": 0
            },
            "spell8": {
                "max": 0
            },
            "spell9": {
                "max": 0
            }
        },
        "statusEffects": [],
        "traits": {
            "ci": [],
            "di": {
                "custom": "",
                "value": []
            },
            "dr": [],
            "dv": [
                {
                    "label": "Cold Iron",
                    "type": "coldiron",
                    "value": "2"
                }
            ],
            "languages": {
                "custom": "",
                "selected": [],
                "value": [
                    "undercommon"
                ]
            },
            "rarity": {
                "value": "common"
            },
            "senses": {
                "value": "darkvision"
            },
            "size": {
                "value": "tiny"
            },
            "traits": {
                "custom": "",
                "value": [
                    "fey",
                    "gremlin"
                ]
            }
        }
    },
    "flags": {
        "pf2e_updatednpcsheet": {}
    },
    "img": "icons/svg/mystery-man.svg",
    "items": [
        {
            "_id": "5UAZUiojo21FxrFI",
            "data": {
                "ability": {
                    "value": ""
                },
                "description": {
                    "chat": "",
                    "unidentified": "",
                    "value": ""
                },
                "displayLevel": {},
                "displayLevels": {},
                "focus": {
                    "points": 1,
                    "pool": 1
                },
                "item": {
                    "value": 0
                },
                "prepared": {
                    "value": "Innate"
                },
                "proficiency": {
                    "value": 0
                },
                "rarity": {
                    "value": "common"
                },
                "showUnpreparedSpells": {
                    "value": false
                },
                "slots": {
                    "slot0": {
                        "max": 0,
                        "prepared": [],
                        "value": 0
                    },
                    "slot1": {
                        "max": 0,
                        "prepared": [],
                        "value": 0
                    },
                    "slot10": {
                        "max": 0,
                        "prepared": [],
                        "value": 0
                    },
                    "slot11": {
                        "max": 0,
                        "prepared": [],
                        "value": 0
                    },
                    "slot2": {
                        "max": 0,
                        "prepared": [],
                        "value": 0
                    },
                    "slot3": {
                        "max": 0,
                        "prepared": [],
                        "value": 0
                    },
                    "slot4": {
                        "max": 0,
                        "prepared": [],
                        "value": 0
                    },
                    "slot5": {
                        "max": 0,
                        "prepared": [],
                        "value": 0
                    },
                    "slot6": {
                        "max": 0,
                        "prepared": [],
                        "value": 0
                    },
                    "slot7": {
                        "max": 0,
                        "prepared": [],
                        "value": 0
                    },
                    "slot8": {
                        "max": 0,
                        "prepared": [],
                        "value": 0
                    },
                    "slot9": {
                        "max": 0,
                        "prepared": [],
                        "value": 0
                    }
                },
                "source": {
                    "value": ""
                },
                "spelldc": {
                    "dc": "17",
                    "item": 0,
                    "mod": 0,
                    "value": 7
                },
                "tradition": {
                    "value": "primal"
                },
                "traits": {
                    "value": []
                },
                "usage": {
                    "value": "held-in-one-hand"
                }
            },
            "flags": {},
            "img": "icons/svg/mystery-man.svg",
            "name": "Primal Innate Spells",
            "sort": 100000,
            "type": "spellcastingEntry"
        },
        {
            "_id": "Bxbmb4MeENpWDtHd",
            "data": {
                "ability": {
                    "label": "Spellcasting Ability",
                    "type": "String",
                    "value": ""
                },
                "area": {
                    "areaType": "",
                    "label": "Area",
                    "type": "String",
                    "value": null
                },
                "components": {
                    "label": "Spell Components",
                    "type": "String",
                    "value": " material, somatic, verbal"
                },
                "cost": {
                    "label": "Cost",
                    "type": "String",
                    "value": ""
                },
                "damage": {
                    "applyMod": false,
                    "label": "Spell Damage",
                    "type": "String",
                    "value": ""
                },
                "damageType": {
                    "label": "Damage Type",
                    "type": "String",
                    "value": ""
                },
                "description": {
                    "chat": "",
                    "label": "Description",
                    "type": "String",
                    "unidentified": "",
                    "value": "<p>You ward an area to alert you when creatures enter without your permission. When you cast alarm, select a password. Whenever a Small or larger corporeal creature enters the spell's area without speaking the password, alarm sends your choice of a mental alert (in which case the spell gains the mental trait) or an audible alarm with the sound and volume of a hand bell (in which case the spell gains the auditory trait). Either option automatically awakens you, and the bell allows each creature in the area to attempt a DC 15 Perception check to wake up. A creature aware of the alarm must succeed at a Stealth check against the spell's DC or trigger the spell when moving into the area.</p>\n<hr />\n<p><strong>Heightened</strong>  You can specify criteria for which creatures sound the alarm spell-for instance, orcs or masked people.</p>"
                },
                "duration": {
                    "label": "Duration",
                    "type": "String",
                    "value": "8 hours"
                },
                "level": {
                    "label": "Spell Level",
                    "type": "Number",
                    "value": 1
                },
                "location": {
                    "value": "5UAZUiojo21FxrFI"
                },
                "materials": {
                    "label": "Materials",
                    "type": "String",
                    "value": "3 gp silver bell focus"
                },
                "prepared": {
                    "label": "Prepared Spell",
                    "type": "String",
                    "value": ""
                },
                "range": {
                    "label": "Range",
                    "type": "String",
                    "value": "touch"
                },
                "rarity": {
                    "value": "common"
                },
                "save": {
                    "basic": "",
                    "label": "Saving Throw",
                    "type": "String",
                    "value": ""
                },
                "scaling": {
                    "formula": "",
                    "mode": "none"
                },
                "school": {
                    "label": "Spell School",
                    "type": "String",
                    "value": "abj"
                },
                "source": {
                    "label": "Source",
                    "type": "String",
                    "value": "https://2e.aonprd.com/Spells.aspx?ID=7"
                },
                "spellCategory": {
                    "value": ""
                },
                "spellType": {
                    "label": "Spell Type",
                    "type": "String",
                    "value": "utility"
                },
                "sustained": {
                    "label": "Can be Sustained",
                    "type": "Boolean",
                    "value": false
                },
                "target": {
                    "label": "Target",
                    "type": "String",
                    "value": ""
                },
                "time": {
                    "label": "Casting Time",
                    "type": "String",
                    "value": "10 minutes"
                },
                "traditions": {
                    "label": "Spell Traditions",
                    "type": "String",
                    "value": [
                        "arcane",
                        "divine",
                        "occult",
                        "primal"
                    ]
                },
                "traits": {
                    "label": "Spell Traits",
                    "type": "String",
                    "value": [
                        "abjuration"
                    ]
                },
                "usage": {
                    "value": "held-in-one-hand"
                }
            },
            "flags": {},
            "img": "systems/pf2e/icons/spells/alarm.jpg",
            "name": "Alarm",
            "sort": 200000,
            "type": "spell"
        },
        {
            "_id": "fqGLqCkZPUekMZbE",
            "data": {
                "ability": {
                    "label": "Spellcasting Ability",
                    "type": "String",
                    "value": ""
                },
                "area": {
                    "areaType": "",
                    "label": "Area",
                    "type": "String",
                    "value": null
                },
                "components": {
                    "label": "Spell Components",
                    "type": "String",
                    "value": "somatic, verbal"
                },
                "cost": {
                    "label": "Cost",
                    "type": "String",
                    "value": ""
                },
                "damage": {
                    "applyMod": false,
                    "label": "Spell Damage",
                    "type": "String",
                    "value": ""
                },
                "damageType": {
                    "label": "Damage Type",
                    "type": "String",
                    "value": ""
                },
                "description": {
                    "chat": "",
                    "label": "Description",
                    "type": "String",
                    "unidentified": "",
                    "value": "<p>The simplest magic does your bidding. You can perform simple magical effects for as long as you Sustain the Spell. Each time you Sustain the Spell, you can choose one of four options.</p>\n<ul>\n<li><strong>Cook</strong> Cool, warm, or flavor 1 pound of nonliving material.</li>\n<li><strong>Lift</strong> <strong>Slowly</strong> lift an unattended object of light Bulk or less 1 foot off the ground.</li>\n<li><strong>Make</strong> Create a temporary object of negligible Bulk, made of congealed magical substance. The object looks crude and artificial and is extremely fragile-it can't be used as a tool, weapon, or spell component.</li>\n<li><strong>Tidy</strong> Color, clean, or soil an object of light Bulk or less. You can affect an object of 1 Bulk with 10 rounds of concentration, and a larger object a 1 minute per Bulk.</li>\n</ul>\n<p>Prestidigitation can't deal damage or cause adverse conditions. Any actual change to an object (beyond what is noted above) persists only as long as you Sustain the Spell.</p>"
                },
                "duration": {
                    "label": "Duration",
                    "type": "String",
                    "value": "sustained"
                },
                "level": {
                    "label": "Spell Level",
                    "type": "Number",
                    "value": 0
                },
                "location": {
                    "value": "5UAZUiojo21FxrFI"
                },
                "materials": {
                    "label": "Materials",
                    "type": "String",
                    "value": ""
                },
                "prepared": {
                    "label": "Prepared Spell",
                    "type": "String",
                    "value": ""
                },
                "range": {
                    "label": "Range",
                    "type": "String",
                    "value": "10 feet"
                },
                "rarity": {
                    "value": "common"
                },
                "save": {
                    "basic": "",
                    "label": "Saving Throw",
                    "type": "String",
                    "value": ""
                },
                "scaling": {
                    "formula": "",
                    "mode": "none"
                },
                "school": {
                    "label": "Spell School",
                    "type": "String",
                    "value": "evo"
                },
                "source": {
                    "label": "Source",
                    "type": "String",
                    "value": ""
                },
                "spellCategory": {
                    "value": ""
                },
                "spellType": {
                    "label": "Spell Type",
                    "type": "String",
                    "value": "utility"
                },
                "sustained": {
                    "label": "Can be Sustained",
                    "type": "Boolean",
                    "value": true
                },
                "target": {
                    "label": "Target",
                    "type": "String",
                    "value": "1 object "
                },
                "time": {
                    "label": "Casting Time",
                    "type": "String",
                    "value": "2 Actions"
                },
                "traditions": {
                    "custom": "",
                    "label": "Spell Traditions",
                    "type": "String",
                    "value": [
                        "arcane",
                        "divine",
                        "occult",
                        "primal"
                    ]
                },
                "traits": {
                    "custom": "",
                    "label": "Spell Traits",
                    "type": "String",
                    "value": [
                        "cantrip",
                        "evocation"
                    ]
                },
                "usage": {
                    "value": "held-in-one-hand"
                }
            },
            "flags": {},
            "img": "systems/pf2e/icons/spells/alarm.jpg",
            "name": "Prestidigitation - Cantrips ",
            "sort": 300000,
            "type": "spell"
        },
        {
            "_id": "UEY9ZV7pkdJ3ouSK",
            "data": {
                "brokenThreshold": {
                    "value": 0
                },
                "bulkCapacity": {
                    "value": ""
                },
                "collapsed": {
                    "value": false
                },
                "containerId": {
                    "value": ""
                },
                "description": {
                    "chat": "",
                    "label": "Description",
                    "type": "String",
                    "unidentified": "",
                    "value": ""
                },
                "equipped": {
                    "value": false
                },
                "equippedBulk": {
                    "value": ""
                },
                "hardness": {
                    "value": 0
                },
                "hp": {
                    "value": 0
                },
                "identified": {
                    "value": false
                },
                "invested": {
                    "value": false
                },
                "level": {
                    "value": 0
                },
                "maxHp": {
                    "value": 0
                },
                "negateBulk": {
                    "value": "0"
                },
                "preciousMaterial": {
                    "value": ""
                },
                "preciousMaterialGrade": {
                    "value": ""
                },
                "price": {
                    "value": 0
                },
                "quantity": {
                    "value": 1
                },
                "rarity": {
                    "value": "common"
                },
                "size": {
                    "value": "med"
                },
                "source": {
                    "value": ""
                },
                "stackGroup": {
                    "value": ""
                },
                "traits": {
                    "value": []
                },
                "usage": {
                    "value": "held-in-one-hand"
                },
                "weight": {
                    "value": 0
                }
            },
            "flags": {},
            "img": "icons/svg/mystery-man.svg",
            "name": "maul",
            "sort": 400000,
            "type": "equipment"
        },
        {
            "_id": "YBhZi6V0xuvRTBkT",
            "data": {
                "attack": {
                    "value": ""
                },
                "attackEffects": {
                    "value": [
                        "Destructive Smash"
                    ]
                },
                "bonus": {
                    "total": 8,
                    "value": 8
                },
                "brokenThreshold": {
                    "value": 0
                },
                "bulkCapacity": {
                    "value": ""
                },
                "collapsed": {
                    "value": false
                },
                "containerId": {
                    "value": ""
                },
                "damage": {
                    "damageType": "bludgeoning",
                    "die": "1d12+1"
                },
                "damageRolls": [
                    {
                        "damage": "1d12+1",
                        "damageType": "bludgeoning"
                    }
                ],
                "description": {
                    "chat": "",
                    "unidentified": "",
                    "value": ""
                },
                "equipped": {
                    "value": false
                },
                "equippedBulk": {
                    "value": ""
                },
                "hardness": {
                    "value": 0
                },
                "hp": {
                    "value": 0
                },
                "identified": {
                    "value": false
                },
                "invested": {
                    "value": false
                },
                "maxHp": {
                    "value": 0
                },
                "negateBulk": {
                    "value": "0"
                },
                "preciousMaterial": {
                    "value": ""
                },
                "preciousMaterialGrade": {
                    "value": ""
                },
                "price": {
                    "value": 0
                },
                "property1": {
                    "critDamage": "",
                    "critDamageType": "",
                    "critDice": 0,
                    "critDie": "",
                    "damageType": "",
                    "dice": 0,
                    "die": "",
                    "value": ""
                },
                "property2": {
                    "critDamage": "",
                    "critDamageType": "",
                    "critDice": 0,
                    "critDie": "",
                    "damageType": "",
                    "dice": 0,
                    "die": "",
                    "value": ""
                },
                "property3": {
                    "critDamage": "",
                    "critDamageType": "",
                    "critDice": 0,
                    "critDie": "",
                    "damageType": "",
                    "dice": 0,
                    "die": "",
                    "value": ""
                },
                "quantity": {
                    "value": 1
                },
                "rarity": {
                    "value": "common"
                },
                "size": {
                    "value": "med"
                },
                "source": {
                    "value": ""
                },
                "stackGroup": {
                    "value": ""
                },
                "traits": {
                    "value": [
                        "shove"
                    ]
                },
                "usage": {
                    "value": "held-in-one-hand"
                },
                "weight": {
                    "value": 0
                }
            },
            "flags": {
                "pf2e_updatednpcsheet": {}
            },
            "img": "icons/svg/mystery-man.svg",
            "name": "Maul",
            "sort": 500000,
            "type": "melee"
        },
        {
            "_id": "MZYIlatBEX5yoG4G",
            "data": {
                "attack": {
                    "value": ""
                },
                "attackEffects": {
                    "value": []
                },
                "bonus": {
                    "total": 11,
                    "value": 11
                },
                "brokenThreshold": {
                    "value": 0
                },
                "bulkCapacity": {
                    "value": ""
                },
                "collapsed": {
                    "value": false
                },
                "containerId": {
                    "value": ""
                },
                "damage": {
                    "damageType": "piercing",
                    "die": "1d6+1"
                },
                "damageRolls": [
                    {
                        "damage": "1d6+1",
                        "damageType": "piercing"
                    }
                ],
                "description": {
                    "chat": "",
                    "unidentified": "",
                    "value": ""
                },
                "equipped": {
                    "value": false
                },
                "equippedBulk": {
                    "value": ""
                },
                "hardness": {
                    "value": 0
                },
                "hp": {
                    "value": 0
                },
                "identified": {
                    "value": false
                },
                "invested": {
                    "value": false
                },
                "maxHp": {
                    "value": 0
                },
                "negateBulk": {
                    "value": "0"
                },
                "preciousMaterial": {
                    "value": ""
                },
                "preciousMaterialGrade": {
                    "value": ""
                },
                "price": {
                    "value": 0
                },
                "property1": {
                    "critDamage": "",
                    "critDamageType": "",
                    "critDice": 0,
                    "critDie": "",
                    "damageType": "",
                    "dice": 0,
                    "die": "",
                    "value": ""
                },
                "property2": {
                    "critDamage": "",
                    "critDamageType": "",
                    "critDice": 0,
                    "critDie": "",
                    "damageType": "",
                    "dice": 0,
                    "die": "",
                    "value": ""
                },
                "property3": {
                    "critDamage": "",
                    "critDamageType": "",
                    "critDice": 0,
                    "critDie": "",
                    "damageType": "",
                    "dice": 0,
                    "die": "",
                    "value": ""
                },
                "quantity": {
                    "value": 1
                },
                "rarity": {
                    "value": "common"
                },
                "size": {
                    "value": "med"
                },
                "source": {
                    "value": ""
                },
                "stackGroup": {
                    "value": ""
                },
                "traits": {
                    "value": [
                        "agile",
                        "finesse"
                    ]
                },
                "usage": {
                    "value": "held-in-one-hand"
                },
                "weight": {
                    "value": 0
                }
            },
            "flags": {
                "pf2e_updatednpcsheet": {}
            },
            "img": "icons/svg/mystery-man.svg",
            "name": "Bite",
            "sort": 600000,
            "type": "melee"
        },
        {
            "_id": "u4BcgBmwi4zY27Ei",
            "data": {
                "actionCategory": {
                    "value": "interaction"
                },
                "actionType": {
                    "value": "passive"
                },
                "actions": {
                    "value": ""
                },
                "description": {
                    "chat": "",
                    "unidentified": "",
                    "value": "A creature that can hear gains a +2 circumstance bonus to its Perception DC against a vexgit's attempts to @Compendium[pf2e.actionspf2e.Sneak]{Sneak}."
                },
                "rarity": {
                    "value": "common"
                },
                "requirements": {
                    "value": ""
                },
                "skill_requirements": {
                    "rank": "",
                    "skill": ""
                },
                "source": {
                    "value": ""
                },
                "traits": {
                    "value": []
                },
                "trigger": {
                    "value": ""
                },
                "usage": {
                    "value": "held-in-one-hand"
                },
                "weapon": {
                    "value": ""
                }
            },
            "flags": {},
            "img": "icons/svg/mystery-man.svg",
            "name": "Clacking Exoskeleton",
            "sort": 700000,
            "type": "action"
        },
        {
            "_id": "wA3oz36wHS6e53Sa",
            "data": {
                "actionCategory": {
                    "value": "offensive"
                },
                "actionType": {
                    "value": "passive"
                },
                "actions": {
                    "value": ""
                },
                "description": {
                    "chat": "",
                    "unidentified": "",
                    "value": "A vexgit's maul Strike against an object deals ignores up to 5 of the object's Hardness."
                },
                "rarity": {
                    "value": "common"
                },
                "requirements": {
                    "value": ""
                },
                "skill_requirements": {
                    "rank": "",
                    "skill": ""
                },
                "source": {
                    "value": ""
                },
                "traits": {
                    "value": []
                },
                "trigger": {
                    "value": ""
                },
                "usage": {
                    "value": "held-in-one-hand"
                },
                "weapon": {
                    "value": ""
                }
            },
            "flags": {},
            "img": "icons/svg/mystery-man.svg",
            "name": "Destructive Smash",
            "sort": 800000,
            "type": "action"
        },
        {
            "_id": "HQfx53oV60UYo0lg",
            "data": {
                "actionCategory": {
                    "value": "offensive"
                },
                "actionType": {
                    "value": "action"
                },
                "actions": {
                    "value": 3
                },
                "description": {
                    "chat": "",
                    "unidentified": "",
                    "value": "<b>Frequency</b> once per hour; <b>Effect</b> The vexgit creates a <%TREASURE.CATEGORY%31%%>snare of their level or lower that normally takes 1 minute to craft at no cost. A single vexgit can maintain one gremlin snare at a time-if they create a new snare, the previously created one vanishes."
                },
                "rarity": {
                    "value": "common"
                },
                "requirements": {
                    "value": ""
                },
                "skill_requirements": {
                    "rank": "",
                    "skill": ""
                },
                "source": {
                    "value": ""
                },
                "traits": {
                    "value": [
                        "conjuration",
                        "primal"
                    ]
                },
                "trigger": {
                    "value": ""
                },
                "usage": {
                    "value": "held-in-one-hand"
                },
                "weapon": {
                    "value": ""
                }
            },
            "flags": {},
            "img": "icons/svg/mystery-man.svg",
            "name": "Gremlin Snare",
            "sort": 900000,
            "type": "action"
        },
        {
            "_id": "8og5NF6ejbQcG1bF",
            "data": {
                "actionCategory": {
                    "value": "offensive"
                },
                "actionType": {
                    "value": "action"
                },
                "actions": {
                    "value": 2
                },
                "description": {
                    "chat": "",
                    "unidentified": "",
                    "value": "<b>Frequency</b> once per hour; <b>Effect</b> The vexgit makes a +9 spell attack against a creature or unattended object. If they succeed, the vexgit deals [[/r 1d6 # damage]] damage (doubled on a critical hit) to a metal item the target is wearing or holding, ignoring its Hardness. If they hit an unattended metal item, the item takes this damage automatically. If a creature uses @Compendium[pf2e.bestiary-ability-glossary-srd.Shield Block]{Shield Block} with a metal shield against this attack, the shield is automatically @Compendium[pf2e.conditionitems.Broken]{Broken}, but no other item is rusted on that attack."
                },
                "rarity": {
                    "value": "common"
                },
                "requirements": {
                    "value": ""
                },
                "skill_requirements": {
                    "rank": "",
                    "skill": ""
                },
                "source": {
                    "value": ""
                },
                "traits": {
                    "value": [
                        "primal",
                        "transmutation"
                    ]
                },
                "trigger": {
                    "value": ""
                },
                "usage": {
                    "value": "held-in-one-hand"
                },
                "weapon": {
                    "value": ""
                }
            },
            "flags": {},
            "img": "icons/svg/mystery-man.svg",
            "name": "Rusting Grasp",
            "sort": 1000000,
            "type": "action"
        },
        {
            "_id": "AiGQomtSZwNKsTr9",
            "data": {
                "actionCategory": {
                    "value": "offensive"
                },
                "actionType": {
                    "value": "passive"
                },
                "actions": {
                    "value": ""
                },
                "description": {
                    "chat": "",
                    "unidentified": "",
                    "value": "When a vexgit succeeds or critically succeeds at a check to @Compendium[pf2e.actionspf2e.Disable Device]{Disable a Device}, they gain an additional success toward disabling a complex device."
                },
                "rarity": {
                    "value": "common"
                },
                "requirements": {
                    "value": ""
                },
                "skill_requirements": {
                    "rank": "",
                    "skill": ""
                },
                "source": {
                    "value": ""
                },
                "traits": {
                    "value": []
                },
                "trigger": {
                    "value": ""
                },
                "usage": {
                    "value": "held-in-one-hand"
                },
                "weapon": {
                    "value": ""
                }
            },
            "flags": {},
            "img": "icons/svg/mystery-man.svg",
            "name": "Speedy Sabotage",
            "sort": 1100000,
            "type": "action"
        },
        {
            "_id": "jh5zI4dkoBtH1r18",
            "data": {
                "description": {
                    "chat": "",
                    "unidentified": "",
                    "value": ""
                },
                "featType": "",
                "item": {
                    "value": 0
                },
                "mod": {
                    "value": 7
                },
                "proficient": {
                    "value": 0
                },
                "rarity": {
                    "value": "common"
                },
                "source": {
                    "value": ""
                },
                "traits": {
                    "value": []
                },
                "usage": {
                    "value": "held-in-one-hand"
                }
            },
            "flags": {},
            "img": "icons/svg/mystery-man.svg",
            "name": "Acrobatics",
            "sort": 1200000,
            "type": "lore"
        },
        {
            "_id": "aiSj8AWOk9Xcca2e",
            "data": {
                "description": {
                    "chat": "",
                    "unidentified": "",
                    "value": ""
                },
                "featType": "",
                "item": {
                    "value": 0
                },
                "mod": {
                    "value": 6
                },
                "proficient": {
                    "value": 0
                },
                "rarity": {
                    "value": "common"
                },
                "source": {
                    "value": ""
                },
                "traits": {
                    "value": []
                },
                "usage": {
                    "value": "held-in-one-hand"
                }
            },
            "flags": {},
            "img": "icons/svg/mystery-man.svg",
            "name": "Athletics",
            "sort": 1300000,
            "type": "lore"
        },
        {
            "_id": "ViIeviMg3Zbi0PdS",
            "data": {
                "description": {
                    "chat": "",
                    "unidentified": "",
                    "value": ""
                },
                "featType": "",
                "item": {
                    "value": 0
                },
                "mod": {
                    "value": 6
                },
                "proficient": {
                    "value": 0
                },
                "rarity": {
                    "value": "common"
                },
                "source": {
                    "value": ""
                },
                "traits": {
                    "value": []
                },
                "usage": {
                    "value": "held-in-one-hand"
                }
            },
            "flags": {},
            "img": "icons/svg/mystery-man.svg",
            "name": "Crafting ",
            "sort": 1400000,
            "type": "lore"
        },
        {
            "_id": "n1fyDMaQJDB8XDe6",
            "data": {
                "description": {
                    "chat": "",
                    "unidentified": "",
                    "value": ""
                },
                "featType": "",
                "item": {
                    "value": 0
                },
                "mod": {
                    "value": 6
                },
                "proficient": {
                    "value": 0
                },
                "rarity": {
                    "value": "common"
                },
                "source": {
                    "value": ""
                },
                "traits": {
                    "value": []
                },
                "usage": {
                    "value": "held-in-one-hand"
                }
            },
            "flags": {},
            "img": "icons/svg/mystery-man.svg",
            "name": "Nature",
            "sort": 1500000,
            "type": "lore"
        },
        {
            "_id": "PirykPy2M3XzgZBI",
            "data": {
                "description": {
                    "chat": "",
                    "unidentified": "",
                    "value": ""
                },
                "featType": "",
                "item": {
                    "value": 0
                },
                "mod": {
                    "value": 5
                },
                "proficient": {
                    "value": 0
                },
                "rarity": {
                    "value": "common"
                },
                "source": {
                    "value": ""
                },
                "traits": {
                    "value": []
                },
                "usage": {
                    "value": "held-in-one-hand"
                }
            },
            "flags": {},
            "img": "icons/svg/mystery-man.svg",
            "name": "Stealth ",
            "sort": 1600000,
            "type": "lore"
        },
        {
            "_id": "lhRM7EezsfH8Jf93",
            "data": {
                "description": {
                    "chat": "",
                    "unidentified": "",
                    "value": ""
                },
                "featType": "",
                "item": {
                    "value": 0
                },
                "mod": {
                    "value": 7
                },
                "proficient": {
                    "value": 0
                },
                "rarity": {
                    "value": "common"
                },
                "source": {
                    "value": ""
                },
                "traits": {
                    "value": []
                },
                "usage": {
                    "value": "held-in-one-hand"
                }
            },
            "flags": {},
            "img": "icons/svg/mystery-man.svg",
            "name": "Thievery",
            "sort": 1700000,
            "type": "lore"
        }
    ],
    "name": "Vexgit",
    "permission": {
        "default": 0
    },
    "token": {
        "actorData": {},
        "actorId": "BbIyNJDPkGKLK0Rt",
        "actorLink": false,
        "bar1": {
            "attribute": "attributes.hp"
        },
        "bar2": {},
        "brightLight": 0,
        "brightSight": 0,
        "dimLight": 0,
        "dimSight": 0,
        "displayBars": 20,
        "displayName": 20,
        "disposition": -1,
        "flags": {},
        "height": 0.75,
        "img": "icons/svg/mystery-man.svg",
        "lightAlpha": 1,
        "lightAngle": 360,
        "lockRotation": false,
        "name": "Vexgit",
        "randomImg": false,
        "rotation": 0,
        "scale": 1,
        "sightAngle": 360,
        "tint": null,
        "vision": false,
        "width": 0.75
    },
    "type": "npc"
}
